{
  "sites": {
    "星空影视": { "url": "https://xkys.tv/xgapp.php/v1/", "jx": [] },
    "饭团影视": { "url": "http://television.wkfile.com/api.php/app/" },
    "嘀哩嘀哩": { "url": "http://dilidili.la/api.php/app/" },
    "天空影视": { "url": "https://tkys.tv/xgapp.php/v1/" },
    "手指影视": { "url": "https://szys5678.com/mogai_api.php/v1.vod" },
    "心爱影视": { "url": "https://xays6677.com/mogai_api.php/v1.vod" },
    "913e影视": { "url": "http://www.913e.net/xgapp.php/v1/" },
    "柚子视频": { "url": "http://yz.26ys.cn/api.php/v1.vod" },
    "无名影视": { "url": "http://ccxg.xazhutu.com/xgapp.php/v1/" },
    "思奇影视": { "url": "http://app.siqitv.vip/mogai_api.php/v1.vod" },
    "艾特影视": { "url": "https://www.aitee.cc/api.php/v1.vod" },
    "TV酷": { "url": "https://www.u23c.com/api.php/app/" },
    "橘子影视": { "url": "http://jz.juzidy.vip/mogai_api.php/v1.vod" },
    "麻瓜视频": { "url": "http://aliyun.k8aa.com/mogai_api.php/v1.vod" },
    "辉哥影视": { "url": "https://app.y.hgyule8.com/api.php/v1.vod" },
    "极光影院": { "url": "http://app.winxz.cc/api.php/v1.vod" },
    "美剧虫": { "url": "https://meijuchong.com/api.php/v1.vod" },
    "vip影院": { "url": "http://360yy.cn/api.php/app/" },
    "爱迪影视": { "url": "https://aidi.fun/xgapp.php/v1/" },
    "看剧吧": { "url": "http://app.ishen520.com/api.php/v1.vod" },
    "播放呀": { "url": "https://www.bofangya.com/xgapp.php/v1/" },
    "苍蓝资源": { "url": "https://vip.ruifenglb.com:4433/api.php/app/" },
    "段友影视": { "url": "http://js.66app.me/api.php/app/" },
    "非凡TV": { "url": "https://app.feifan.live:2087/xgapp.php/v1/" },
    "DC影视": { "url": "http://chaorenbb.com/api.php/v1.vod" },
    "HG影视": { "url": "http://hgyx.vip/api.php/v1.vod" },
    "神马影视": { "url": "http://summ.vip/api.php/v1.vod" },
    "追剧吧": { "url": "http://zhuiju8.vip/api.php/v1.vod" },
    "海胆影视": { "url": "http://xf123.cc/api.php/app/" },
    "海棠视频": { "url": "https://www.haitangsp.net/api.php/app/" },
    "京广航": { "url": "https://www.jingguanhang.com/api.php/app/" },
    "久九影视": { "url": "https://api.58qxk.cn/xgapp.php/v1/" },
    "冷视TV": { "url": "https://len.tv/api.php/v1.vod" },
    "看365": { "url": "https://www.kan365.xyz/api.php/app/" },
    "快云影音": { "url": "https://www.kuaiyunyy.com/api.php/app/" },
    "灵狐影视": { "url": "http://x.dmntv.com/api.php/app/" },
    "抹茶猪": { "url": "https://www.mczdyw.com/api.php/app/" },
    "萌蛋蛋": { "url": "http://app.mengdandan.com/xgapp.php/v1/" },
    "莫扎兔": { "url": "http://www.mozhatu.xyz/api.php/app/" },
    "躺平影视": { "url": "http://www.lltpys.com/api.php/app/" },
    "天神影视": { "url": "https://deity.fun/api.php/app/" },
    "我爱电影": { "url": "http://xg.5imv.net/api.php/app/" },
    "小七影视": { "url": "http://ys.kd60.cn/api.php/app/" },
    "(无名)": { "url": "http://ccxg.xazhutu.com/xgapp.php/v1/" },
    "免费看": { "url": "https://freekan.vip/mogai_api.php/v1.vod" },
    "暖光影视": { "url": "https://app.bl210.com/api.php/v1.vod" },
    "小极影视": { "url": "http://app.8d8q.com/api.php/v1.vod" },
    "月色影视": { "url": "http://69ty.cc/mogai_api.php/v1.vod" },
    "影阅阁": { "url": "http://221.236.18.12:665/api.php/v1.vod" },
    "U5影视": { "url": "https://appx.uy07.com/api.php/v1.vod" },
    "yoyo": { "url": "http://jx.wnvod.net/ruifenglb_api.php/v1.vod" },
    "爱影视": { "url": "https://www.hzlff.cn/api.php/v1.vod" },
    "比邻影视": { "url": "http://0hzy.cn:9990/mogai_api.php/v1.vod" },
    "大头影视": { "url": "http://dy.idsao.com/mogai_api.php/v1.vod" },
    "豆渣影视": { "url": "http://douzhayss.cc/api.php/v1.vod" },
    "黄河影视": { "url": "http://i.ledu8.cn/api.php/v1.vod" },
    "林谷影视": { "url": "http://ys.linguyy.xyz/mogai_api.php/v1.vod" },
    "段友影视1": { "url": "https://shangjihuoke.com/api.php/v1.vod" },
    "饭后电影": { "url": "http://summ.vip/api.php/v1.vod" },
    "虎猫视频": { "url": "https://humaosp.com/mogai_api.php/v1.vod" },
    "绿箭影视": { "url": "http://www.69ty.cc/mogai_api.php/v1.vod" },
    "益达影院": { "url": "http://luobu.yss6080.com/mogai_api.php/v1.vod" },
    "蓝光视频": { "url": "http://vip.91iqiyi.com/mogai_api.php/v1.vod" },
    "美剧范": { "url": "http://ttzmz.net/api.php/v1.vod" },
    "皮皮动漫": { "url": "http://dm.muying.me/mogai_api.php/v1.vod" },
    "视听星球": { "url": "http://zjyapijzys.shynwlkj.com/api.php/v1.vod" },
    "淘剧社": { "url": "https://app.shuhai99.com/api.php/v1.vod" },
    "天天视频": { "url": "http://app.qianju.cc/api.php/v1.vod" },
    "兔子窝": { "url": "http://cj.huimaojia.com:12345/mogai_api.php/v1.vod" },
    "吾爱影视": { "url": "http://app.5lp.net/api.php/v1.vod" },
    "小蜻蜓": { "url": "http://3ketv.com/mogai_api.php/v1.vod" },
    "追剧猫": { "url": "http://tv.kmtvb.com/api.php/v1.vod" },
    "猪猪影院": { "url": "http://app.2zdyy.com/api.php/v1.vod" },
    "渔渔影视": { "url": "http://luobo.yugenye.site/api.php/v1.vod" }
  },
  "jx": []
}
