{
   
    "ua": "",
    "homeUrl": "https://www.ccoyy.com/",
    "dcVipFlag": "true",
    "pCfgJs": "https://www.ccoyy.com/static/js/playerconfig.js",
    "pCfgJsR": "MacPlayerConfig.player_list=([\\w\\W]*?),MacPlayerConfig.downer_list",
    "dcShow2Vip": {},
    "dcPlayUrl": "true",
    "cateManual": {
        "4K专区": "34",
        "电影": "1",
        "连续剧": "2",
        "动漫": "4",
        "综艺": "3"
    },
     "author": "Jonee",
    "homeVodNode": "//div[@class='myui-vodlist__box']/a",
    "homeVodName": "/@title",
    "homeVodId": "/@href",
    "homeVodIdR": "/voddetail/(\\w+).html",
    "homeVodImg": "/@data-original",
    "homeVodImgR": "",
    "homeVodMark": "/span[contains(@class,'text-right')]/text()",   
    "cateUrl": "https://www.ccoyy.com/vodtype/{cateId}-{catePg}.html",
    "cateVodNode": "//div[@class='myui-vodlist__box']/a",
    "cateVodName": "/@title",
    "cateVodId": "/@href",
    "cateVodIdR": "/voddetail/(\\w+).html",
    "cateVodImg": "/@data-original",
    "cateVodImgR": "",
    "cateVodMark": "/span[contains(@class,'text-right')]/text()",
    "dtUrl": "https://www.ccoyy.com/voddetail/{vid}.html",
    "dtNode": "//body",
    "dtName": "//div[@class='myui-content__thumb']/a/@title",
    "dtNameR": "",
    "dtImg": "//div[@class='myui-content__thumb']/a//@data-original",
    "dtImgR": "",
    "dtCate": "//div[@class='myui-content__detail']/p[1][@class='data']/a[1]/text()",
    "dtYear": "//div[@class='myui-content__detail']/p[1][@class='data']/a[3]/text()",
    "dtDirector": "//div[@class='myui-content__detail']/p[4]/a/text()",
    "dtActor": "//div[@class='myui-content__detail']/p[3]/a/text()",
    "dtDesc": "//span[@class='sketch content']/text()",
    "dtFromNode": "//h3[contains(text(),'播放地址')]/following-sibling::*/li/a",
    "dtFromName": "/text()",
    "dtFromNameR": "",
    "dtUrlNode": "//div[contains(@id,'playlist')]/ul",
    "dtUrlSubNode": "/li/a",
    "dtUrlId": "@href",
    "dtUrlIdR": "/vodplay/(\\S+).html",
    "dtUrlName": "/text()",
    "dtUrlNameR": "",
    "playUrl": "https://www.ccoyy.com/vodplay/{playUrl}.html",
    "playUa": "",
    "searchUrl": "https://www.ccoyy.com/vodsearch/-------------.html?wd={wd}",
    "scVodNode": "//ul[contains(@id,'searchList')]//div[@class='thumb']",
    "scVodName": "/a/@title",
    "scVodId": "/a/@href",
    "scVodIdR": "/voddetail/(\\w+).html",
    "scVodImg": "/a/@data-original",
    "scVodMark": "/a/span[3]/text()"
}