{
  "ua": "Mozilla/5.0 (Linux; U; Android 10; zh-CN; HMA-AL00 Build/HUAWEIHMA-AL00) AppleWebKit/537.36 (KHTML, like Gecko) Version/4.0 Chrome/78.0.3904.108 UCBrowser/13.1.9.1099 Mobile Safari/537.36",

  "homeUrl": "https://www.paopaoshipin.com/",
  "cateNode": "//nav[contains(@class,'bm-item-list')]/a[contains(@href, '.html')]",
  "cateName": "/text()",
  "cateId": "/@href",
  "cateIdR": "/t/(\\d+).html",
  "cateManual": {},
  "author": "Jonee",
  "homeVodNode": "//div[@class='movie-list-item']/a",
  "homeVodName": "//div[2]/div[1]/text()",
  "homeVodId": "/@href",
  "homeVodIdR": "/v/(\\w+).html",
  "homeVodImg": "//div[1]/div/@data-original",
  "homeVodMark": "concat(//div[@class='movie-rating cor4']/text(),'分')",
  "cateUrl": "https://www.paopaoshipin.com/t/{cateId}/{catePg}.html",
  "cateVodNode": "//div[@class='movie-list-item']/a",
  "cateVodName": "//div[2]/div[1]/text()",
  "cateVodId": "/@href",
  "cateVodIdR": "/v/(\\w+).html",
  "cateVodImg": "//div[1]/div/@data-original",
  "cateVodMark": "concat(//div[@class='movie-rating cor4']/text(),'分')",

  "dtUrl": "https://www.paopaoshipin.com/v/{vid}.html",
  "dtNode": "//div[@class='mobile-main mobile-main-type']",
  "dtName": "//h1[@class='movie-title']/text()",
  "dtNameR": "",
  "dtImg": "//div[@class='poster']/img/@src",
  "dtImgR": "",
  "dtCate": "//div[contains(@class, 'scroll-content')]/child::*/text()",
  "dtCateR": "",
  "dtYear": "//div[@class='scroll-content']/a[@target='_blank']/text()",
  "dtYearR": "",
  "dtMark": "//p[@class='cr3']/text()",
  "dtMarkR": "",
  "dtDesc": "//div[@class='summary detailsTxt']/text()",
  "dtDescR": "",

  "dtFromNode": "//a[contains(@class,'swiper-slide')]",
  "dtFromName": "/text()",
  "dtUrlNode": "//ul[contains(@class,'content_playlist')]",
  "dtUrlSubNode": "/li/a",
  "dtUrlId": "@href",
  "dtUrlIdR": "/p/(\\S+).html",
  "dtUrlName": "/text()",
  "dtUrlNameR": "",
  "playUrl": "https://www.paopaoshipin.com/p/{playUrl}.html",

  "searchUrl": "https://www.paopaoshipin.com/search?wd={wd}",
  "scVodNode": "//div[@class='box flex']",
  "scVodName": "//div[@class='movie-title txtHide txtHide']/text()",
  "scVodId": "//a/@href",
  "scVodIdR": "/v/(\\w+).html",
  "scVodImg": "//a/div/@data-original",
  "scVodMark": "concat(//div[@class='movie-rating cor4']/text(),'分')"


}
