{
  "ua": "",
  "homeUrl": "https://saohuo.vip/",
  "cateNode": "//ul[contains(@class,'type_list')]/li/a[contains(@href, '.html')]",
  "cateName": "/text()",
  "cateId": "/@href",
  "cateIdR": "/list/(\\d+).html",
"cateManual": {
//	"最近更新": "/",
	"电影": "/list/1.html",
	"电视剧": "/list/2.html",
	"动漫": "/list/4.html",
    "大陆剧": "/list/20.html",
    "韩国剧": "/list/22.html",
	"香港剧": "/list/21.html",
	"美国剧": "/list/23.html",
    "日本剧": "/list/24.html",
	"喜剧片": "/list/6.html",
	"爱情片": "/list/7.html",
	"恐怖片": "/list/8.html",
	"动作片": "/list/9.html",
	"科幻片": "/list/10.html",
	"战争片": "/list/11.html",
	"犯罪片": "/list/12.html",
	"动画片": "/list/13.html",
    "悬疑片": "/list/14.html",
	"剧情片": "/list/15.html",
	"悬疑片": "/list/17.html"
},
  "homeVodNode": "//ul[@class='v_list']/li/div[@class='v_img']",
  "homeVodName": "/a/@title",
  "homeVodId": "/a/@href",
  "homeVodIdR": "/movie/(\\w+).html",
  "homeVodImg": "/a/img/@data-original",
  "homeVodMark": "/div[@class='v_note']/text()",
  "cateUrl": "https://saohuo.vip/{cateId}-{catePg}.html",
  "cateVodNode": "//ul[@class='v_list']/li/div[@class='v_img']",
  "cateVodName": "/a/@title",
  "cateVodId": "/a/@href",
  "cateVodIdR": "/movie/(\\w+).html",
  "cateVodImg": "/a/img/@data-original",
  "cateVodMark": "/div[@class='v_note']/text()",
  "dtUrl": "http://saohuo.vip/movie/{vid}.html",
  "dtNode": "//body",
  "dtName": "//section[contains(@class,'v_info_box')]/h1[1]/text()",
  "dtImg": "//section[contains(@class,'v_info')]/div[@class='m_background']/@style",
  "dtImgR": "background-image:url\\((\\S+)\\)",
  "dtCate": "//section[contains(@class,'v_info_box')]/p[1]/text()",
  "dtDesc": "//p[contains(@class,'show_part')]/text()",
  "dtFromNode": "//ul[@class='from_list']/li",
  "dtFromName": "/text()",
  "dtUrlNode": "//ul[@class='play_list' or @class='large_list']/li",
  "dtUrlSubNode": "/a",
  "dtUrlId": "@href",
  "dtUrlIdR": "/play/(\\S+).html",
  "dtUrlName": "/text()",
  "playUrl": "http://saohuo.vip/play/{playUrl}.html",
  "searchUrl": "https://saohuo.vip/search.php?searchword={wd}",
  "scVodNode": "//ul[@class='v_list']/li/div[@class='v_img']",
  "scVodName": "/a/@title",
  "scVodId": "/a/@href",
  "scVodIdR": "/movie/(\\w+).html",
  "scVodImg": "/a/img/@data-original",
  "scVodMark": "/div[@class='v_note']/text()"
}