SET	1	
类型+cateId	全部类型+动作片+喜剧片+爱情片+科幻片+恐怖片+剧情片+战争片+悬疑片+冒险片+犯罪片+奇幻片+惊悚片+青春片+纪录片+灾难片+古装片+动画片+	1+6+7+8+9+10+11+12+20+21+22+23+24+25+26+27+28+29+	
地区+area	全部地区+大陆+香港+台湾+美国+韩国+日本+泰国+新加坡+马来西亚+印度+英国+法国+加拿大+西班牙+俄罗斯+其它+	+大陆+香港+台湾+美国+韩国+日本+泰国+新加坡+马来西亚+印度+英国+法国+加拿大+西班牙+俄罗斯+其它+	
年份+year	全部年份+2022+2021+2020+2019+2018+2017+2016+2015+2014+2013+2012+2011+2010+2009+2008+2007+2006+2005+2004+2003+2002+2001+2000+1999+1998+1997+1996+1995+1994+1993+1992+1991+1990+	+2022+2021+2020+2019+2018+2017+2016+2015+2014+2013+2012+2011+2010+2009+2008+2007+2006+2005+2004+2003+2002+2001+2000+1999+1998+1997+1996+1995+1994+1993+1992+1991+1990+	
排序+by	时间+人气+评分+	time+hits+score+	

SET	2	
类型+cateId	全部+国产剧+港台剧+日韩剧+欧美剧+泰国剧+海外剧+	2+13+14+15+16+30+31+	
地区+area	全部+内地+韩国+香港+台湾+日本+美国+泰国+英国+新加坡+其他+	+内地+韩国+香港+台湾+日本+美国+泰国+英国+新加坡+其他+	
年份+year	全部年份+2022+2021+2020+2019+2018+2017+2016+2015+2014+2013+2012+2011+2010+2009+2008+2007+2006+2005+2004+2003+2002+2001+2000+1999+1998+1997+1996+1995+1994+1993+1992+1991+1990+	+2022+2021+2020+2019+2018+2017+2016+2015+2014+2013+2012+2011+2010+2009+2008+2007+2006+2005+2004+2003+2002+2001+2000+1999+1998+1997+1996+1995+1994+1993+1992+1991+1990+	
排序+by	时间+人气+评分+	time+hits+score+	

SET	3	
地区+area	全部地区+内地+港台+日韩+欧美+	+内地+港台+日韩+欧美+	
年份+year	全部年份+2022+2021+2020+2019+2018+2017+2016+2015+2014+2013+2012+2011+2010+2009+2008+2007+2006+2005+2004+2003+2002+2001+2000+1999+1998+1997+1996+1995+1994+1993+1992+1991+1990+	+2022+2021+2020+2019+2018+2017+2016+2015+2014+2013+2012+2011+2010+2009+2008+2007+2006+2005+2004+2003+2002+2001+2000+1999+1998+1997+1996+1995+1994+1993+1992+1991+1990+	
排序+by	时间+人气+评分+	time+hits+score+	

SET	4	
类型+cateId	全部+日本动漫+大陆动漫+	4+32+33+	
地区+area	全部地区+国产+日本+欧美+其他+	+国产+日本+欧美+其他+	
年份+year	全部年份+2022+2021+2020+2019+2018+2017+2016+2015+2014+2013+2012+2011+2010+2009+2008+2007+2006+2005+2004+2003+2002+2001+2000+1999+1998+1997+1996+1995+1994+1993+1992+1991+1990+	+2022+2021+2020+2019+2018+2017+2016+2015+2014+2013+2012+2011+2010+2009+2008+2007+2006+2005+2004+2003+2002+2001+2000+1999+1998+1997+1996+1995+1994+1993+1992+1991+1990+	
排序+by	时间+人气+评分+	time+hits+score	

SET	34	
类型+cateId	全部+4K电影+4K剧集+	34+35+36+	
排序+by	时间+人气+评分+	time+hits+score+	